Posterior Predictive Accuracy and Forecasting
…
# Forecast period and RMSE
forecast_start <- as.Date("2020-07-16")
forecast_end <- as.Date("2020-08-01")

forecast_df <- merged_df %>%
  filter(Date >= forecast_start & Date <= forecast_end)

rmse_df <- forecast_df %>%
  group_by(County) %>%
  summarise(RMSE = sqrt(mean((Observed_Cases - Predicted_Cases)^2, na.rm = TRUE)))
merged_df <- left_join(merged_df, rmse_df, by = "County")
print(merged_df)

# A tibble: 6,854 × 9
   County    Date       Predicted_Cases Median_Predicted_Cases Lower_95_CI
   <chr>     <date>               <dbl>                  <dbl>       <dbl>
 1 Abbeville 2020-03-06         0.00342                      0           0
 2 Abbeville 2020-03-07         0.00417                      0           0
 3 Abbeville 2020-03-08         0.00483                      0           0
 4 Abbeville 2020-03-09         0.008                        0           0
 5 Abbeville 2020-03-10         0.0107                       0           0
 6 Abbeville 2020-03-11         0.0118                       0           0
 7 Abbeville 2020-03-12         0.0162                       0           0
 8 Abbeville 2020-03-13         0.025                        0           0
 9 Abbeville 2020-03-14         0.0261                       0           0
10 Abbeville 2020-03-15         0.0373                       0           0
# ℹ 6,844 more rows
# ℹ 4 more variables: Upper_95_CI <dbl>, Observed_Cases <dbl>,
#   date_column_name <date>, RMSE <dbl>
…
Date

b84cd2e

JMitic01

2025-04-25

#average daily miss in case counts.
mae_df <- forecast_df %>%
  group_by(County) %>%
  summarise(MAE = mean(abs(Observed_Cases - Predicted_Cases), na.rm = TRUE))
print(mae_df)

# A tibble: 46 × 2
   County        MAE
   <chr>       <dbl>
 1 Abbeville    5.06
 2 Aiken      163.  
 3 Allendale    6.45
 4 Anderson    14.8 
 5 Bamberg      7.65
 6 Barnwell    12.0 
 7 Beaufort    18.7 
 8 Berkeley    34.5 
 9 Calhoun     14.7 
10 Charleston  60.1 
# ℹ 36 more rows

bias_df <- forecast_df %>%
  group_by(County) %>%
  summarise(Bias = mean(Predicted_Cases - Observed_Cases, na.rm = TRUE))
accuracy_df <- rmse_df %>%
  left_join(mae_df, by = "County") %>%
  left_join(bias_df, by = "County")
print(bias_df)

# A tibble: 46 × 2
   County       Bias
   <chr>       <dbl>
 1 Abbeville   -2.30
 2 Aiken      163.  
 3 Allendale    4.77
 4 Anderson     5.95
 5 Bamberg      1.88
 6 Barnwell    10.0 
 7 Beaufort     8.19
 8 Berkeley   -30.0 
 9 Calhoun     12.8 
10 Charleston -38.1 
# ℹ 36 more rows
…
